// Jest Snapshot v1, https://goo.gl/fbAQLP

exports[`Pagination renders correctly 1`] = `
<div
  className="Paginationstyle__PaginationStyle-hfrakh docnMn"
>
  <div
    className="Fillstyle__Fill-dVlCuC egjRiy"
  />
  <span
    className="Paginationstyle__Count-hmPrOA eDPmFX"
  >
    1
    –
    10
     
    of 
    20
  </span>
  <div
    className="Offsetstyle__Offset-bDLMnb leomvh"
  />
  <button
    className="Buttonstyle__FlatButtonBase-jMYwnF kXtLgP"
    data-test-id="pagination-previous"
    disabled={false}
    onClick={[Function]}
    type="button"
  >
    <div
      className="Buttonstyle__ButtonInner-ctTdtE lgHvJA"
    >
      <span
        className="SVGIconstyle__SVGIconWrap-fUBuop csiQYE"
        name="hardware.keyboard_arrow_left"
        size={24}
      >
        <svg
          dangerouslySetInnerHTML={
            Object {
              "__html": Promise {},
            }
          }
          height={24}
          viewBox="0 0 24 24"
          width={24}
        />
      </span>
    </div>
  </button>
  <div
    className="Offsetstyle__Offset-bDLMnb cjlSbw"
  />
  <button
    className="Buttonstyle__FlatButtonBase-jMYwnF kXtLgP"
    data-test-id="pagination-next"
    disabled={false}
    onClick={[Function]}
    type="button"
  >
    <div
      className="Buttonstyle__ButtonInner-ctTdtE lgHvJA"
    >
      <span
        className="SVGIconstyle__SVGIconWrap-fUBuop csiQYE"
        name="hardware.keyboard_arrow_right"
        size={24}
      >
        <svg
          dangerouslySetInnerHTML={
            Object {
              "__html": Promise {},
            }
          }
          height={24}
          viewBox="0 0 24 24"
          width={24}
        />
      </span>
    </div>
  </button>
</div>
`;
